; Engine configuration file.
; It's best edited using the editor UI and not directly,
; since the parameters that go here are not all obvious.
;
; Format:
;   [section] ; section goes between []
;   param=value ; assign values to parameters

config_version=4

_global_script_classes=[  ]
_global_script_class_icons={

}

[application]

config/name="Emoworld Server"
run/main_scene="res://Scenes/Server.tscn"
config/icon="res://icon.png"

[autoload]

InitializePlayer="*res://Scripts/InitializePlayer.gd"
Position="*res://Scripts/Position.gd"
Global="*res://Scripts/Global.gd"

[physics]

common/physics_fps=20

[rendering]

quality/driver/driver_name="GLES2"
environment/default_environment="res://default_env.tres"
